<?xml version="1.0" encoding="utf-8"?>
<!-- Generator: Adobe Illustrator 16.1.0, SVG Export Plug-In . SVG Version: 6.00 Build 0)  -->
<svg version="1.2" baseProfile="tiny" id="Layer_1" xmlns="http://www.w3.org/2000/svg" xmlns:xlink="http://www.w3.org/1999/xlink"
	 x="0px" y="0px" width="71.52px" height="63.774px" viewBox="0 0 71.52 63.774" xml:space="preserve">
<g>
	<path fill="none" stroke="#010101" stroke-width="2" stroke-linecap="round" stroke-linejoin="round" stroke-miterlimit="10" d="
		M26.063,59.987l7.501,1.395c0,0,9.311,0.882,12.243,0c0.922-0.275,2.514-1.662,2.891-2.551c0.217-0.512-0.084-1.719,0.172-2.211
		c0.373-0.73,1.957-1.645,1.955-2.637c-0.002-0.705-0.826-1.93-0.766-2.635c0.059-0.707,1.531-1.674,1.531-2.381
		c-0.004-0.742-1.291-1.984-1.191-2.72c0.076-0.585,1.154-1.452,1.189-2.04c0.062-1.072-1.387-3.17-2.381-3.572
		c-1.58-0.638-9.609-0.341-9.609-0.341c-0.783-1.37,1.398-4.758,2-6.22c0.881-2.145,0.732-4.988-0.383-6.449
		c-1.361-1.783-3.859-1.903-3.91-1.103c-0.373,5.792-1.482,7.398-2.966,8.544c-0.893,0.688-1.672,1.29-2.083,2.337
		c-2.53,6.444-4.405,7.937-5.478,7.937h-0.715H21.36c-0.79,0-1.43,0.641-1.43,1.428v11.717c0,0.789,0.64,1.43,1.43,1.43h3.45
		C24.81,59.915,25.362,59.856,26.063,59.987z"/>
</g>
</svg>
